{
  "defaultSeverity": "error",
  "extends": ["tslint:recommended", "tslint-react"],
  "jsRules": {},
  "rules": {
    "quotemark": [true, "single", "avoid-escape"],
    "object-literal-sort-keys": false,
    "linebreak-style": false,
    "ordered-imports": false,
    "member-ordering": false,
    "no-angle-bracket-type-assertion": false,
    "arrow-parens": false,
    "jsx-boolean-value": false,
    "quotemark": false,
    "trailing-comma": false
  },
  "rulesDirectory": []
}
